HW5_Solutuions
…
##          capname                       going_capitals
## 1     Washington                  Ottawa, Mexico City
## 2         Ottawa                           Washington
## 3 Port-au-Prince                        Santo Domingo
## 4  Santo Domingo                       Port-au-Prince
## 5    Mexico City Washington, Belmopan, Guatemala City
## 6       Belmopan          Mexico City, Guatemala City

     unnest,   

newcmap.2019<-newcmap.2019%>%unnest('going_capitals')
newcmap.2019

## # A tibble: 612 x 2
##    capname        going_capitals
##    <chr>          <chr>         
##  1 Washington     Ottawa        
##  2 Washington     Mexico City   
##  3 Ottawa         Washington    
##  4 Port-au-Prince Santo Domingo 
##  5 Santo Domingo  Port-au-Prince
##  6 Mexico City    Washington    
##  7 Mexico City    Belmopan      
##  8 Mexico City    Guatemala City
##  9 Belmopan       Mexico City   
## 10 Belmopan       Guatemala City
## # ... with 602 more rows
…
